{
  "tracks": {
    "href": "https://api.spotify.com/v1/search?query=abba&type=track&market=US&offset=0&limit=1",
    "items": [
      {
        "album": {
          "album_type": "album",
          "artists": [
            {
              "external_urls": {
                "spotify": "https://open.spotify.com/artist/0LcJLqbBmaGUft1e9Mm8HV"
              },
              "href": "https://api.spotify.com/v1/artists/0LcJLqbBmaGUft1e9Mm8HV",
              "id": "0LcJLqbBmaGUft1e9Mm8HV",
              "name": "ABBA",
              "type": "artist",
              "uri": "spotify:artist:0LcJLqbBmaGUft1e9Mm8HV"
            }
          ],
          "external_urls": {
            "spotify": "https://open.spotify.com/album/1M4anG49aEs4YimBdj96Oy"
          },
          "href": "https://api.spotify.com/v1/albums/1M4anG49aEs4YimBdj96Oy",
          "id": "1M4anG49aEs4YimBdj96Oy",
          "images": [
            {
              "height": 575,
              "url": "https://i.scdn.co/image/361387b8f4297afda0394896aeb1f315b3fbad0b",
              "width": 640
            },
            {
              "height": 270,
              "url": "https://i.scdn.co/image/803de302874cdff3ecbd531ecfd7585793c6b7c1",
              "width": 300
            },
            {
              "height": 57,
              "url": "https://i.scdn.co/image/c43883a6978668e0636d96887cf43ddbb6b5965d",
              "width": 63
            }
          ],
          "name": "Arrival",
          "release_date": "1976",
          "release_date_precision": "year",
          "total_tracks": 12,
          "type": "album",
          "uri": "spotify:album:1M4anG49aEs4YimBdj96Oy"
        },
        "artists": [
          {
            "external_urls": {
              "spotify": "https://open.spotify.com/artist/0LcJLqbBmaGUft1e9Mm8HV"
            },
            "href": "https://api.spotify.com/v1/artists/0LcJLqbBmaGUft1e9Mm8HV",
            "id": "0LcJLqbBmaGUft1e9Mm8HV",
            "name": "ABBA",
            "type": "artist",
            "uri": "spotify:artist:0LcJLqbBmaGUft1e9Mm8HV"
          }
        ],
        "disc_number": 1,
        "duration_ms": 230693,
        "explicit": false,
        "external_ids": {
          "isrc": "SEAYD7601020"
        },
        "external_urls": {
          "spotify": "https://open.spotify.com/track/4NtUY5IGzHCaqfZemmAu56"
        },
        "href": "https://api.spotify.com/v1/tracks/4NtUY5IGzHCaqfZemmAu56",
        "id": "4NtUY5IGzHCaqfZemmAu56",
        "is_local": false,
        "is_playable": true,
        "name": "Dancing Queen",
        "popularity": 73,
        "preview_url": null,
        "track_number": 2,
        "type": "track",
        "uri": "spotify:track:4NtUY5IGzHCaqfZemmAu56"
      }
    ],
    "limit": 1,
    "next": "https://api.spotify.com/v1/search?query=abba&type=track&market=US&offset=1&limit=1",
    "offset": 0,
    "previous": null,
    "total": 9250
  }
}